<?xml version="1.0" encoding="UTF-8"?>
<svg width="540px" height="341px" viewBox="0 0 540 341" version="1.1" xmlns="http://www.w3.org/2000/svg" xmlns:xlink="http://www.w3.org/1999/xlink">
    <title>Group 121</title>
    <defs>
        <path d="M56.1807692,29.0814381 C45.0647157,31.5466555 0.80729097,29.6954849 0.80729097,29.6954849 L0.80729097,29.6954849 L0.164347826,42.7683612 C0.164347826,42.7683612 39.4687625,60.2271572 58.6288294,55.976689 L58.6288294,55.976689 C77.7888963,51.7271237 102.936823,13.8991304 102.936823,13.8991304 L102.936823,13.8991304 L78.5275585,0.156220736 C78.5275585,0.156220736 67.2959197,26.6162207 56.1807692,29.0814381" id="path-1"></path>
        <linearGradient x1="-0.000138597587%" y1="49.9996445%" x2="97.5892703%" y2="49.9996445%" id="linearGradient-3">
            <stop stop-color="#D0E7FF" offset="0%"></stop>
            <stop stop-color="#B7D9FC" offset="100%"></stop>
        </linearGradient>
        <path d="M16.6975585,0.353076923 C4.38591973,1.56040134 2.67471572,9.18632107 0.80548495,14.3903679 L0.80548495,14.3903679 C0.239297659,15.9688294 2.19973244,97.7977926 2.36769231,104.750067 L2.36769231,104.750067 L53.551204,104.750067 L57.4802007,23.3319732 C57.4802007,23.3319732 52.4603679,0.288963211 33.7987625,0.288963211 L33.7987625,0.288963211 C28.8276923,0.288963211 24.8300669,0.177892977 21.6487625,0.177892977 L21.6487625,0.177892977 C19.7054849,0.177892977 18.0674247,0.219431438 16.6975585,0.353076923" id="path-4"></path>
        <linearGradient x1="-0.000138597587%" y1="49.9996445%" x2="97.5892703%" y2="49.9996445%" id="linearGradient-6">
            <stop stop-color="#D0E7FF" offset="0%"></stop>
            <stop stop-color="#B7D9FC" offset="100%"></stop>
        </linearGradient>
        <path d="M0.896688963,20.9209365 C0.896688963,20.9209365 24.297291,37.615786 24.297291,49.0018395 L24.297291,49.0018395 C24.297291,58.5755518 16.2442475,90.35699 13.680602,100.235017 L13.680602,100.235017 L29.9943813,100.235017 C37.3177926,89.3049833 51.0841806,66.8444147 51.0841806,52.4359866 L51.0841806,52.4359866 C51.0841806,32.8108696 19.5998328,0.0668227425 19.5998328,0.0668227425 L19.5998328,0.0668227425 L0.896688963,20.9209365 Z" id="path-7"></path>
        <linearGradient x1="-0.000138597587%" y1="49.9996445%" x2="97.5892703%" y2="49.9996445%" id="linearGradient-9">
            <stop stop-color="#D0E7FF" offset="0%"></stop>
            <stop stop-color="#B7D9FC" offset="100%"></stop>
        </linearGradient>
        <polygon id="path-10" points="0.670936455 7.33153846 23.9062876 8.78448161 23.1721405 3.38719064 7.16809365 0.123712375"></polygon>
        <linearGradient x1="0.0019424041%" y1="49.9948577%" x2="100.001167%" y2="49.9948577%" id="linearGradient-12">
            <stop stop-color="#E3E3E2" offset="0%"></stop>
            <stop stop-color="#D0E7FF" offset="100%"></stop>
        </linearGradient>
        <path d="M25.1145151,1.51525084 C12.9843813,2.55010033 2.37672241,11.4375251 0.645652174,23.488194 L0.645652174,23.488194 C-1.61458194,39.2249498 9.63421405,64.351204 19.1573579,69.0676254 L19.1573579,69.0676254 C33.1892308,76.0180936 58.4473244,71.6457191 77.2895318,68.8346488 L77.2895318,68.8346488 C104.323846,64.802709 113.163411,80.7137458 119.68495,92.3002676 L119.68495,92.3002676 L120.823645,92.6948829 C120.823645,92.6948829 128.001672,35.3582609 94.1098997,10.8595987 L94.1098997,10.8595987 C82.800602,2.68374582 63.1240134,0.59237429 45.9532776,0.59237429 L45.9532776,0.59237429 C38.1494649,0.59237429 30.8585619,1.02491639 25.1145151,1.51525084" id="path-13"></path>
        <linearGradient x1="-0.000138597587%" y1="49.9996445%" x2="97.5892703%" y2="49.9996445%" id="linearGradient-15">
            <stop stop-color="#D0E7FF" offset="0%"></stop>
            <stop stop-color="#B7D9FC" offset="100%"></stop>
        </linearGradient>
        <path d="M25.2337124,1.41230769 C25.1569565,1.42856187 25.0792977,1.44571906 25.0025418,1.46107023 L25.0025418,1.46107023 C13.7465217,3.86759197 0.895785953,16.8754515 0.895785953,36.4057525 L0.895785953,36.4057525 L1.21635452,106.205719 L59.9138127,106.205719 L58.6532107,41.8364548 L59.9246488,106.205719 L80.7552843,106.205719 C85.9683612,75.3941137 80.8112709,45.810602 77.396087,31.3019398 L77.396087,31.3019398 C74.5281271,19.1212375 66.4154849,8.63187291 54.9635117,3.58675585 L54.9635117,3.58675585 C50.3166221,1.53963211 44.7892977,0.175183946 38.3102007,0.175183946 L38.3102007,0.175183946 C33.2705017,0.175183946 28.9405686,0.649264214 25.2337124,1.41230769" id="path-16"></path>
        <linearGradient x1="-0.000138597587%" y1="49.9996445%" x2="97.5892703%" y2="49.9996445%" id="linearGradient-18">
            <stop stop-color="#D0E7FF" offset="0%"></stop>
            <stop stop-color="#B7D9FC" offset="100%"></stop>
        </linearGradient>
        <path d="M0.423511706,2.42006689 C0.423511706,3.35377926 1.18023411,4.11140468 2.11394649,4.11140468 L2.11394649,4.11140468 C3.04856187,4.11140468 3.80618729,3.35377926 3.80618729,2.42006689 L3.80618729,2.42006689 C3.80618729,1.48635452 3.04856187,0.728729097 2.11394649,0.728729097 L2.11394649,0.728729097 C1.18023411,0.728729097 0.423511706,1.48635452 0.423511706,2.42006689" id="path-19"></path>
        <linearGradient x1="-0.00585958356%" y1="49.9920662%" x2="99.9941351%" y2="49.9920662%" id="linearGradient-21">
            <stop stop-color="#E3E3E2" offset="0%"></stop>
            <stop stop-color="#D0E7FF" offset="100%"></stop>
        </linearGradient>
    </defs>
    <g id="Page-1" stroke="none" stroke-width="1" fill="none" fill-rule="evenodd">
        <g id="Group-121">
            <g id="Group-4" transform="translate(281.739130, 243.812709)">
                <mask id="mask-2" fill="white">
                    <use xlink:href="#path-1"></use>
                </mask>
                <g id="Clip-3"></g>
                <path d="M56.1807692,29.0814381 C45.0647157,31.5466555 0.80729097,29.6954849 0.80729097,29.6954849 L0.80729097,29.6954849 L0.164347826,42.7683612 C0.164347826,42.7683612 39.4687625,60.2271572 58.6288294,55.976689 L58.6288294,55.976689 C77.7888963,51.7271237 102.936823,13.8991304 102.936823,13.8991304 L102.936823,13.8991304 L78.5275585,0.156220736 C78.5275585,0.156220736 67.2959197,26.6162207 56.1807692,29.0814381" id="Fill-2" fill="url(#linearGradient-3)" mask="url(#mask-2)"></path>
            </g>
            <g id="Group-7" transform="translate(357.591973, 234.782609)">
                <mask id="mask-5" fill="white">
                    <use xlink:href="#path-4"></use>
                </mask>
                <g id="Clip-6"></g>
                <path d="M16.6975585,0.353076923 C4.38591973,1.56040134 2.67471572,9.18632107 0.80548495,14.3903679 L0.80548495,14.3903679 C0.239297659,15.9688294 2.19973244,97.7977926 2.36769231,104.750067 L2.36769231,104.750067 L53.551204,104.750067 L57.4802007,23.3319732 C57.4802007,23.3319732 52.4603679,0.288963211 33.7987625,0.288963211 L33.7987625,0.288963211 C28.8276923,0.288963211 24.8300669,0.177892977 21.6487625,0.177892977 L21.6487625,0.177892977 C19.7054849,0.177892977 18.0674247,0.219431438 16.6975585,0.353076923" id="Fill-5" fill="url(#linearGradient-6)" mask="url(#mask-5)"></path>
            </g>
            <g id="Group-16" transform="translate(361.204013, 180.602007)">
                <path d="M22.2427625,52.8322274 C23.8239331,52.8322274 25.3870435,53.0065084 26.9284816,53.3026957 C28.6315585,52.070087 29.5273445,50.8419933 29.5273445,50.8419933 L29.5273445,29.1851037 L22.5461739,34.7088161 L12.9182809,37.2164749 L12.9182809,51.0948361 C12.9182809,51.0948361 12.92099,52.2470769 13.7129298,53.4092508 C16.4806555,53.0065084 19.3269431,52.8322274 22.2427625,52.8322274" id="Fill-8" fill="#F39F85"></path>
                <path d="M12.0892274,41.3312207 C10.0863512,41.2707191 8.23156856,40.9411204 7.25992977,40.0742308 C1.48427759,30.8698495 8.06270569,6.0569398 8.06270569,6.0569398 L29.0242776,9.81526756 L29.691602,26.4423913 C29.869495,30.8815886 27.9253144,35.1401839 24.4541438,37.9124247 C20.7391605,40.1979431 16.4498629,41.4630602 12.0892274,41.3312207" id="Fill-10" fill="#F6B58E"></path>
                <path d="M19.163408,10.2497057 C19.163408,10.2497057 12.2048127,11.5500401 4.88501338,10.2497057 C-2.43297993,8.94937124 2.2500301,0.882782609 2.2500301,0.882782609 C2.2500301,0.882782609 7.6680903,3.35522408 17.2950803,1.93298328 C23.7913344,0.973083612 25.5386589,-0.288421405 29.7033411,1.93298328 C35.361602,4.95084281 33.9953478,15.1819465 33.9953478,15.1819465 L30.8727391,36.828 L29.7033411,36.828 C29.7033411,36.828 29.4161839,23.956495 29.4161839,19.5741873 C28.1926054,17.5794381 26.8651806,17.5794381 25.8438763,18.0778997 C24.736786,18.6188027 24.107388,19.819806 24.107388,21.0524147 L24.107388,43.5256254 C24.107388,43.5256254 9.79558194,49.694087 6.15283946,48.5761605 C2.511,47.4582341 4.94551505,30.8058261 4.94551505,30.8058261 C4.94551505,30.8058261 9.14541472,28.9844548 12.3980569,32.6271973 C15.6208997,36.2365284 19.5336421,32.4818127 19.5336421,32.4818127 L19.163408,10.2497057 Z" id="Fill-12" fill="#212B53"></path>
                <path d="M27.6617258,17.5126154 C26.0543679,17.3798729 24.5093177,18.919505 24.2122274,20.9512776 C23.9151371,22.9839532 24.9770769,24.7394047 26.5853378,24.8721472 C28.1935987,25.0057926 29.7377458,23.4670635 30.0348361,21.434388 C30.3319264,19.4017124 29.2690836,17.6453579 27.6617258,17.5126154" id="Fill-14" fill="#F6B58E"></path>
            </g>
            <g id="Group-19" transform="translate(383.779264, 239.297659)">
                <mask id="mask-8" fill="white">
                    <use xlink:href="#path-7"></use>
                </mask>
                <g id="Clip-18"></g>
                <path d="M0.896688963,20.9209365 C0.896688963,20.9209365 24.297291,37.615786 24.297291,49.0018395 L24.297291,49.0018395 C24.297291,58.5755518 16.2442475,90.35699 13.680602,100.235017 L13.680602,100.235017 L29.9943813,100.235017 C37.3177926,89.3049833 51.0841806,66.8444147 51.0841806,52.4359866 L51.0841806,52.4359866 C51.0841806,32.8108696 19.5998328,0.0668227425 19.5998328,0.0668227425 L19.5998328,0.0668227425 L0.896688963,20.9209365 Z" id="Fill-17" fill="url(#linearGradient-9)" mask="url(#mask-8)"></path>
            </g>
            <g id="Group-38" transform="translate(21.672241, 181.505017)">
                <path d="M385.909826,106.79412 C385.909826,116.292883 377.799893,148.296462 375.27598,158.027298 L376.317151,158.027298 C379.072234,147.392548 386.897719,116.31907 386.897719,106.79412 C386.897719,95.2870635 364.254742,78.9985686 363.290328,78.3104749 L362.716916,79.1159599 C362.948087,79.2803077 385.909826,95.7909431 385.909826,106.79412" id="Fill-20" fill="#77BAFF"></path>
                <polygon id="Fill-22" fill="#120A8F" points="352.205699 48.2157692 368.814763 47.9629264 371.450649 53.8487458 352.035933 53.8487458"></polygon>
                <path d="M104.127441,155.721642 L78.2887124,79.4073612 C78.2887124,79.4073612 74.7118896,75.1298027 67.2060702,93.7101371 C75.1579766,109.377361 74.4012542,139.238097 85.7204849,155.721642 L104.127441,155.721642 Z" id="Fill-24" fill="#F6B58E"></path>
                <path d="M39.4106087,54.0932809 L49.1324147,37.9944181 L61.6968963,44.5358227 L57.4247559,58.4972609 C57.3046555,58.5622776 57.1773311,58.6137492 57.0482007,58.6634147 C52.9593712,54.1754548 45.111311,56.3011405 39.4106087,54.0932809" id="Fill-26" fill="#F39F85"></path>
                <path d="M50.5641371,12.884689 L47.0631672,32.1955585 C48.9793545,32.5639866 49.6159766,34.8630502 48.8339699,36.5634181 C48.930592,37.0438194 48.9278829,37.551311 48.8240368,38.0434515 C51.5655753,41.1759933 56.8328328,45.6567291 64.8985184,45.9899398 C77.5171806,46.5091706 75.7021304,21.4560602 75.7021304,21.4560602 L50.5641371,12.884689 Z" id="Fill-28" fill="#F6B58E"></path>
                <path d="M41.1332809,25.7940301 C41.3716756,24.3744983 40.1589331,20.9593144 39.3128127,19.7926254 C33.8622441,12.2732609 40.9906054,9.39446488 43.4865251,8.50861204 C46.2470268,7.52974916 46.7960569,3.06707358 50.4731137,1.36399666 C56.0880301,-1.23667224 59.7569599,3.68382943 62.9265251,3.83282609 C66.0969933,3.98272575 68.9306388,0.384230769 72.8460903,3.56011706 C76.7615418,6.73690635 75.4612074,10.0897826 76.5339833,11.8858696 C77.6067592,13.6801505 81.1555886,10.2469064 84.3811405,15.8771739 C89.287194,24.4404181 75.7294013,24.433194 75.7294013,24.433194 C75.7294013,24.433194 68.0131806,25.696505 59.5564916,19.8594482 C58.3979298,19.0575753 56.8149532,18.9799164 55.7457893,19.8973746 C52.8110067,22.4149666 49.0517759,38.3287124 49.0517759,38.3287124 L46.5513411,35.0173746 C46.5513411,35.0173746 40.0424448,32.3011204 41.1332809,25.7940301" id="Fill-30" fill="#FF9725"></path>
                <path d="M48.0112375,29.0550702 C48.2731104,30.6958395 49.8163545,31.8155719 51.4571237,31.552796 C53.098796,31.2909231 54.2176254,29.7485819 53.9557525,28.1060067 C53.6929766,26.4652375 52.1497324,25.347311 50.5089632,25.6091839 C48.867291,25.8710569 47.7493645,27.414301 48.0112375,29.0550702" id="Fill-32" fill="#F6B58E"></path>
                <path d="M80.2316288,84.7180535 C76.4317625,69.3632709 66.8336689,52.0516656 49.6385518,51.9062809 C49.4967793,51.9044749 49.3550067,51.9044749 49.2114281,51.9044749 C19.8410268,51.9044749 0.605107023,80.6274181 0.605107023,80.6274181 L18.514505,105.834943 L18.514505,156.051331 L80.2072475,156.051331 L80.2072475,93.9260468 L80.2316288,84.7180535 Z" id="Fill-34" fill="#120A8F"></path>
                <polygon id="Fill-36" fill="#AFD8C7" points="80.8701472 156.051421 80.2317191 84.7181438 79.5436254 84.7181438 79.5436254 156.051421"></polygon>
            </g>
            <g id="Group-41" transform="translate(58.695652, 227.558528)">
                <mask id="mask-11" fill="white">
                    <use xlink:href="#path-10"></use>
                </mask>
                <g id="Clip-40"></g>
                <polygon id="Fill-39" fill="url(#linearGradient-12)" mask="url(#mask-11)" points="0.670936455 7.33153846 23.9062876 8.78448161 23.1721405 3.38719064 7.16809365 0.123712375"></polygon>
            </g>
            <g id="Group-52">
                <path d="M38.1578629,337.556438 L20.617796,306.576873 L40.1869264,287.34005 L22.2775284,262.132525 C22.2775284,262.132525 0.385856187,286.676338 0.385856187,303.26102 C0.385856187,311.046773 9.01140803,324.971187 18.1643177,337.556438 L38.1578629,337.556438 Z" id="Fill-42" fill="#F6B58E"></path>
                <path d="M382.427368,61.6317893 C412.48496,61.6317893 436.852686,85.9995151 436.852686,116.05801 C436.852686,127.247207 433.485361,133.620652 427.099274,146.295301 C417.803689,164.74199 433.139508,172.549415 433.139508,172.549415 C433.139508,172.549415 392.932987,172.826639 382.427368,172.826639 C352.368873,172.826639 328.001147,146.116505 328.001147,116.05801 C328.001147,85.9995151 352.368873,61.6317893 382.427368,61.6317893" id="Fill-44" fill="#FEDA70"></path>
                <path d="M188.739211,164.440836 L190.373659,163.874649 C212.825197,156.088896 236.950013,154.786756 260.216067,159.625084 C286.922589,165.180401 323.141418,169.781237 343.159344,159.865284 C356.82008,153.098127 372.955967,117.056288 369.714161,94.4810368 C367.231786,77.1938127 352.013358,64.444214 334.613258,62.9596656 C308.242656,60.7093645 259.22095,59.2862207 235.637037,76.3639465 C202.465866,100.384916 202.465866,142.708094 202.465866,142.708094 L188.739211,164.440836 Z" id="Fill-46" fill="#120A8F"></path>
                <path d="M387.085274,157.648033 L388.548151,157.04392 C408.651863,148.730809 430.252766,161.05509 451.085207,166.222114 C474.998719,172.152181 507.430324,170.734455 525.353268,160.147565 C537.585441,152.924388 539.49892,132.846863 539.39688,92.450709 C539.328251,65.3071304 544.481729,47.8853579 520.355107,39.8079331 C501.402732,33.4624816 465.304003,31.6501405 430.078485,39.9199064 C416.55591,43.0948896 405.185207,50.7217124 402.907816,66.9298395 C398.16611,100.692482 402.03009,132.334856 402.03009,132.334856 L387.085274,157.648033 Z" id="Fill-48" fill="#77BAFF"></path>
                <path d="M107.123087,0.752658863 C62.5378696,0.752658863 26.394893,36.8956355 26.394893,81.4808528 C26.394893,98.0772742 31.3894415,107.530886 40.8620167,126.329749 C54.6500769,153.691856 31.9023512,165.271154 31.9023512,165.271154 C31.9023512,165.271154 91.5398428,165.682926 107.123087,165.682926 C151.708304,165.682926 187.850378,126.065167 187.850378,81.4808528 C187.850378,36.8956355 151.708304,0.752658863 107.123087,0.752658863" id="Fill-50" fill="#77BAFF"></path>
            </g>
            <g id="Group-55" transform="translate(139.063545, 47.859532)">
                <mask id="mask-14" fill="white">
                    <use xlink:href="#path-13"></use>
                </mask>
                <g id="Clip-54"></g>
                <path d="M25.1145151,1.51525084 C12.9843813,2.55010033 2.37672241,11.4375251 0.645652174,23.488194 L0.645652174,23.488194 C-1.61458194,39.2249498 9.63421405,64.351204 19.1573579,69.0676254 L19.1573579,69.0676254 C33.1892308,76.0180936 58.4473244,71.6457191 77.2895318,68.8346488 L77.2895318,68.8346488 C104.323846,64.802709 113.163411,80.7137458 119.68495,92.3002676 L119.68495,92.3002676 L120.823645,92.6948829 C120.823645,92.6948829 128.001672,35.3582609 94.1098997,10.8595987 L94.1098997,10.8595987 C82.800602,2.68374582 63.1240134,0.59237429 45.9532776,0.59237429 L45.9532776,0.59237429 C38.1494649,0.59237429 30.8585619,1.02491639 25.1145151,1.51525084" id="Fill-53" fill="url(#linearGradient-15)" mask="url(#mask-14)"></path>
            </g>
            <g id="Group-64" transform="translate(154.414716, 176.989967)">
                <polygon id="Fill-56" fill="#F39F85" points="15.5963378 43.4264749 15.4166388 59.3528629 29.6056355 58.5898194 30.5014214 33.8997191"></polygon>
                <path d="M13.2308127,44.898291 C11.2478027,44.8432074 9.41108027,44.5461171 8.44937458,43.7632074 C2.73061204,35.4464849 9.24402341,13.0283579 9.24402341,13.0283579 L18.384291,9.18063211 L29.997,16.4245786 L30.6580033,31.4470535 C30.8349933,35.4573211 28.9097759,39.3050468 25.4738227,41.8090936 C21.7940569,43.8742776 17.5472007,45.0174883 13.2308127,44.898291" id="Fill-58" fill="#F6B58E"></path>
                <path d="M26.7737057,24.9386087 C26.1352776,22.4146957 27.8627358,16.592087 25.2927692,17.0128896 C23.4181204,17.31901 16.99501,17.583592 14.833204,17.583592 C9.68243478,17.583592 0.499725753,15.5680736 0.499725753,7.72904348 C0.499725753,3.80997993 2.9071505,1.82516388 5.31457525,0.821016722 C7.67775251,-0.165973244 10.3461472,2.66857525 12.763505,3.51379264 C18.436214,5.49680268 30.1437391,7.10235452 33.1408294,6.48108361 C36.5424682,5.77492977 40.1012308,9.24610033 40.3640067,11.3212174 C40.9401271,15.8660669 37.8978863,22.7930569 35.6466823,27.1699465 C34.3427358,29.7019866 32.6008294,31.9748629 30.5013311,33.9000803 L26.7737057,24.9386087 Z" id="Fill-60" fill="#212B53"></path>
                <path d="M33.3902408,25.5056087 C32.2425151,24.4915284 30.0933512,24.6838696 28.5907425,25.9345385 C27.0881338,27.1843043 26.8009766,29.0201237 27.9487023,30.034204 C29.0973311,31.0473813 31.245592,30.8559431 32.7482007,29.6052742 C34.2508094,28.3546054 34.5379666,26.518786 33.3902408,25.5056087" id="Fill-62" fill="#F6B58E"></path>
            </g>
            <g id="Group-67" transform="translate(139.063545, 231.170569)">
                <mask id="mask-17" fill="white">
                    <use xlink:href="#path-16"></use>
                </mask>
                <g id="Clip-66"></g>
                <path d="M25.2337124,1.41230769 C25.1569565,1.42856187 25.0792977,1.44571906 25.0025418,1.46107023 L25.0025418,1.46107023 C13.7465217,3.86759197 0.895785953,16.8754515 0.895785953,36.4057525 L0.895785953,36.4057525 L1.21635452,106.205719 L59.9138127,106.205719 L58.6532107,41.8364548 L59.9246488,106.205719 L80.7552843,106.205719 C85.9683612,75.3941137 80.8112709,45.810602 77.396087,31.3019398 L77.396087,31.3019398 C74.5281271,19.1212375 66.4154849,8.63187291 54.9635117,3.58675585 L54.9635117,3.58675585 C50.3166221,1.53963211 44.7892977,0.175183946 38.3102007,0.175183946 L38.3102007,0.175183946 C33.2705017,0.175183946 28.9405686,0.649264214 25.2337124,1.41230769" id="Fill-65" fill="url(#linearGradient-18)" mask="url(#mask-17)"></path>
            </g>
            <g id="Group-96" transform="translate(167.959866, 185.117057)">
                <polygon id="Fill-68" fill="#77BAFF" points="30.2658261 152.259502 29.0603077 90.7040167 30.4536522 90.6633813 31.6718127 152.259502"></polygon>
                <polygon id="Fill-70" fill="#77BAFF" points="16.3282274 41.6918829 19.1790301 46.9230201 0.895785953 46.8932207 1.96314381 41.6918829"></polygon>
                <polygon id="Fill-72" fill="#F6B58E" points="78.9710268 84.3106154 66.4977492 151.778107 76.3315284 151.778107 99.8043712 74.2962341"></polygon>
                <path d="M77.9829532,84.3106154 C77.9829532,84.3106154 87.7038562,54.1130569 103.552585,54.1130569 C119.401314,54.1130569 102.086097,56.1303813 122.262953,54.1130569 C136.056431,52.7332575 148.268739,76.6765686 148.268739,76.6765686 L132.838104,84.9544615 C132.838104,84.9544615 125.849709,96.4109498 131.941415,118.495866 C138.03312,140.581686 136.122351,152.407505 136.122351,152.407505 L89.0935886,152.407505 C89.0935886,152.407505 89.2552274,133.878642 94.0330535,117.509779 C98.8099766,101.140916 91.918204,86.2430569 91.918204,86.2430569 L77.9829532,84.3106154 Z" id="Fill-74" fill="#120A8F"></path>
                <path d="M103.552495,43.0861304 L103.552495,54.112786 L103.643699,54.1796087 C108.061224,57.4539231 114.054502,57.624592 118.651726,54.6058294 L119.401224,54.112786 L116.94594,41.4200769 L103.552495,43.0861304 Z" id="Fill-76" fill="#F39F85"></path>
                <path d="M96.0563378,20.0355351 C96.0563378,20.0355351 95.1361706,44.862893 109.389281,44.862893 C123.642391,44.862893 123.641488,17.7364716 123.641488,17.7364716 L111.228712,5.32279264 L96.0563378,20.0355351 Z" id="Fill-78" fill="#F6B58E"></path>
                <path d="M113.067602,12.2197124 C113.067602,12.2197124 107.862652,20.8561003 102.007535,24.5349632 C99.1666656,26.318408 97.7272676,29.6107826 98.4397425,32.888709 C99.3364314,37.0136589 104.233455,40.535398 103.596833,44.4192441 C102.560177,50.7385084 105.690913,57.1146622 109.250579,62.4370033 C120.095729,78.6496455 109.842953,105.093391 94.6651605,105.093391 C77.5666656,105.093391 74.7429532,88.8979064 76.0062642,85.2994114 C77.3806455,81.3857659 78.9943244,73.1846288 75.894291,70.4286421 C73.6412809,68.4257659 73.9871338,65.6905485 73.9871338,62.7945953 C73.9871338,59.3180067 77.07001,53.4303813 79.9063645,48.7482742 C82.7996087,43.9722542 86.0323846,34.1113846 86.6220502,28.5587759 C89.6191405,0.380347826 109.494391,0.305397993 110.396498,0.380347826 C120.216732,1.19757191 129.057201,9.5937592 129.224258,19.4465017 C129.417502,30.908408 132.952786,56.3471037 136.056431,60.6318863 C125.902084,65.0737926 112.655829,55.8974047 116.44486,39.8021538 C117.187134,36.6515518 123.344759,27.8905485 123.070244,25.0930234 C121.98302,14.0022542 113.067602,12.2197124 113.067602,12.2197124" id="Fill-80" fill="#FF9725"></path>
                <path d="M114.657622,18.6042642 C112.821803,19.845903 110.84692,20.9024247 108.789863,21.7936957 C106.974813,24.4973077 104.704645,26.863194 102.114813,28.8642642 C103.331167,32.6993478 103.919027,36.6933612 103.77003,40.5618562 C103.738425,41.4215217 103.657154,42.258612 103.552405,43.0857692 C105.140799,44.1955686 107.060599,44.862893 109.389462,44.862893 C119.153709,44.862893 122.227555,32.1340635 123.195582,24.1162375 C120.016987,22.8447993 117.162572,20.9322241 114.657622,18.6042642" id="Fill-82" fill="#F6B58E"></path>
                <path d="M120.03595,29.1211706 C119.043542,28.0908361 119.235883,26.1683278 120.466686,24.8264548 C121.696585,23.4845819 123.49809,23.2317391 124.489595,24.2611706 C125.4811,25.291505 125.287856,27.2149164 124.05886,28.5567893 C122.82896,29.8986622 121.027455,30.151505 120.03595,29.1211706" id="Fill-84" fill="#F6B58E"></path>
                <path d="M115.803993,96.6141271 L114.14697,74.019913 C114.077438,73.0600134 113.277371,72.3168361 112.314763,72.3168361 L101.636669,72.3168361 C100.565699,72.3168361 99.7213846,73.2288763 99.8044615,74.2962341 L101.558107,96.8913512 C101.632154,97.8476388 102.430415,98.587204 103.390314,98.587204 L113.970883,98.587204 C115.038241,98.587204 115.881652,97.6796789 115.803993,96.6141271" id="Fill-86" fill="#FEFEFE"></path>
                <path d="M148.2691,76.6764783 C148.2691,76.6764783 166.861174,111.989589 159.044719,117.047348 C151.228264,122.105107 120.636993,103.549154 120.636993,103.549154 L122.262411,98.4913946 L139.222746,99.1162776 L132.837562,84.9543712 L148.2691,76.6764783 Z" id="Fill-88" fill="#F6B58E"></path>
                <path d="M158.145773,106.507595 C145.678816,98.6198027 123.440388,100.030304 123.207411,100.045656 L123.118013,98.6676622 C124.101391,98.6080635 146.038214,97.211107 158.883532,105.341809 L158.145773,106.507595 Z" id="Fill-90" fill="#F39F85"></path>
                <path d="M119.22911,95.7975351 C118.572622,95.7442575 116.350314,95.3487391 112.891786,92.454592 C109.790849,89.8575351 105.052756,82.4582709 103.197973,86.6247592 C104.349311,90.929408 105.175565,96.1560301 105.175565,96.1560301 C106.133659,98.6763311 110.022923,100.949207 112.745498,101.886532 L121.531786,103.736799 C121.531786,103.736799 125.184462,100.999776 125.379512,100.899542 L124.692321,99.1513144 C122.672288,98.3377023 120.84008,97.1872676 119.22911,95.7975351" id="Fill-92" fill="#F6B58E"></path>
                <path d="M116.913341,96.1617191 C116.913341,96.1617191 116.670431,96.2149967 116.231569,96.2104816 C116.446485,96.7513846 116.628893,97.3004147 116.791435,97.8512508 C118.239863,99.3872709 119.637722,100.971151 121.06809,102.524328 C121.896151,101.512054 123.062839,100.093425 123.162171,100.007639 L115.940799,87.8404816 C115.940799,87.8404816 114.064344,88.147505 114.660331,91.0949298 C115.257221,94.0423545 116.913341,96.1617191 116.913341,96.1617191" id="Fill-94" fill="#F6B58E"></path>
            </g>
            <g id="Group-99" transform="translate(272.709030, 262.775920)">
                <mask id="mask-20" fill="white">
                    <use xlink:href="#path-19"></use>
                </mask>
                <g id="Clip-98"></g>
                <path d="M0.423511706,2.42006689 C0.423511706,3.35377926 1.18023411,4.11140468 2.11394649,4.11140468 L2.11394649,4.11140468 C3.04856187,4.11140468 3.80618729,3.35377926 3.80618729,2.42006689 L3.80618729,2.42006689 C3.80618729,1.48635452 3.04856187,0.728729097 2.11394649,0.728729097 L2.11394649,0.728729097 C1.18023411,0.728729097 0.423511706,1.48635452 0.423511706,2.42006689" id="Fill-97" fill="url(#linearGradient-21)" mask="url(#mask-20)"></path>
            </g>
            <g id="Group-120" transform="translate(373.846154, 185.117057)">
                <polygon id="Fill-100" fill="#F39F85" points="89.3706321 46.6611472 95.9129398 61.2763645 106.560331 51.6818829 99.0499967 30.3907124"></polygon>
                <path d="M85.5866589,47.5870033 C83.799602,47.825398 82.1028462,47.8046288 81.1131472,47.1761338 C74.6385652,39.8427893 76.8608729,18.2418863 76.8608729,18.2418863 L84.4389331,11.7104147 L96.0281639,17.1194448 L99.0496355,28.9895117 C99.8560234,32.9067692 98.7498361,39.7759666 96.0706054,42.7450635 C93.1042174,45.3168361 89.4795351,47.0677726 85.5866589,47.5870033" id="Fill-102" fill="#F6B58E"></path>
                <path d="M83.8432174,125.061562 C83.8432174,125.061562 81.2262943,128.863234 75.9897391,130.661127 C70.7531839,132.460826 31.7630167,124.279555 31.7630167,124.279555 L23.9312107,125.100391 C19.8342542,126.214706 15.4889699,125.989856 11.5292709,124.458351 L0.0619464883,120.024572 L67.3325819,118.621294 L93.080107,86.642097 L83.8432174,125.061562 Z" id="Fill-104" fill="#F6B58E"></path>
                <path d="M96.9756923,132.039662 C94.3786355,127.264545 87.1527492,113.816017 81.284087,101.385181 C79.0969967,96.7509331 79.0112107,91.3978896 81.0809097,86.7103645 C86.420408,74.6163512 94.4373311,57.9801973 94.4373311,57.9801973 L106.560241,51.6817023 C106.560241,51.6817023 122.104656,71.5885585 125.735659,84.678592 C128.877231,96.0131739 130.280508,124.576284 130.600174,132.039662 L96.9756923,132.039662 Z" id="Fill-106" fill="#FEDA70"></path>
                <path d="M121.37105,88.1695385 C121.37105,88.1695385 104.307773,127.897465 96.1039264,127.897465 C87.9000803,127.897465 42.4922207,108.476428 42.4922207,108.476428 L43.6977391,101.696629 L90.0618863,109.551913 C90.0618863,109.551913 94.176903,98.5920803 97.0222876,86.0402408 C98.1510502,81.0592375 102.006,77.0011104 107.024027,76.0529498 C117.986569,73.9823478 121.37105,88.1695385 121.37105,88.1695385" id="Fill-108" fill="#F6B58E"></path>
                <path d="M98.7217525,25.1158696 C98.7217525,25.1158696 93.6612843,28.1752676 78.1692441,18.2421572 C75.7961338,18.8616221 79.5851639,-3.46710702 99.6283746,3.09145485 C113.660247,7.68326087 112.986602,21.2663378 112.340047,28.7802843 C111.641117,36.8983445 115.866301,42.255 121.446903,48.192291 C126.12901,53.1714883 126.055866,62.328913 129.174863,67.2557358 C133.012656,73.3194482 137.080716,72.9654682 140.12386,79.1158696 C143.308776,85.5534281 143.744027,93.4249666 139.480013,99.2042308 C137.055431,102.489381 131.404395,110.410585 122.461886,107.587776 C117.442054,106.003896 116.089344,97.24199 115.86901,89.8580769 C115.673057,83.2859699 112.489946,77.1816221 107.346401,73.0864716 C102.521619,69.2468729 97.2561672,63.9850334 95.8456656,58.4965385 C93.0806488,47.7272408 98.7217525,25.1158696 98.7217525,25.1158696" id="Fill-110" fill="#212B53"></path>
                <path d="M100.540144,25.5470569 C99.3463645,24.7198997 97.4491405,25.2255853 96.3041237,26.6767224 C95.157301,28.1269565 95.1961304,29.9745151 96.3899097,30.8016722 C97.584592,31.6288294 99.48001,31.1240468 100.626833,29.6720067 C101.772753,28.2217726 101.733923,26.3751171 100.540144,25.5470569" id="Fill-112" fill="#F6B58E"></path>
                <path d="M18.2948027,105.177732 C18.1819264,104.203385 18.7201204,103.270575 19.6195184,102.880475 L28.3389833,99.0914448 C30.4971773,98.1550234 32.9235652,98.0466622 35.156709,98.7871304 L43.8012241,101.658702 L44.9706221,101.703853 L45.9007224,109.747866 C44.1723612,109.112147 43.161893,108.720241 43.161893,108.720241 L37.6905552,106.731813 C37.6905552,106.731813 25.7590836,116.847331 21.4941672,107.662816 C20.216408,116.759739 17.6256722,115.749271 17.6256722,115.749271 L18.2948027,105.177732 Z" id="Fill-114" fill="#F6B58E"></path>
                <path d="M106.414043,17.2956221 C104.697421,23.5101371 95.8632742,26.4927793 86.6841773,23.9571271 C77.5041773,21.4205719 72.5231739,14.5287993 73.1715351,8.11291304 C74.0221706,-0.312170569 83.7204983,-1.08334114 92.9004983,1.45231104 C102.079595,3.98796321 108.129763,11.081107 106.414043,17.2956221" id="Fill-116" fill="#212B53"></path>
                <polygon id="Fill-118" fill="#FEDA70" points="129.61192 130.063425 142.595398 154.415799 95.4682074 154.415799 96.9753311 129.075532"></polygon>
            </g>
        </g>
    </g>
</svg>